<svg width="18" height="18" viewBox="0 0 18 18" fill="none" xmlns="http://www.w3.org/2000/svg">
<path d="M9.0012 1.5015C4.8597 1.5015 1.50195 4.85925 1.50195 9.00075C1.50195 12.7432 4.24395 15.8452 7.8297 16.41V11.169H5.9247V9.00075H7.8297V7.3485C7.8297 5.4675 8.94945 4.43025 10.6617 4.43025C11.4822 4.43025 12.3417 4.5765 12.3417 4.5765V6.42075H11.3937C10.4637 6.42075 10.1727 6.99975 10.1727 7.593V8.99925H12.251L11.9187 11.1675H10.1727V16.4085C13.7585 15.8467 16.5005 12.744 16.5005 9.00075C16.5005 4.85925 13.1427 1.5015 9.0012 1.5015Z" fill="#DADADA"/>
</svg>
