<svg width="18" height="18" viewBox="0 0 18 18" fill="none" xmlns="http://www.w3.org/2000/svg">
<path fill-rule="evenodd" clip-rule="evenodd" d="M9 18C13.9706 18 18 13.9706 18 9C18 4.02944 13.9706 0 9 0C4.02944 0 0 4.02944 0 9C0 13.9706 4.02944 18 9 18ZM7.05581 3.78375C7.656 3.75675 7.84725 3.75 9.375 3.75C10.9028 3.75 11.094 3.75675 11.6942 3.78375C12.2927 3.81131 12.7016 3.90638 13.0594 4.04531C13.4348 4.18641 13.775 4.40775 14.0561 4.69387C14.3422 4.975 14.5636 5.31516 14.7047 5.69062C14.8436 6.04837 14.9387 6.45731 14.9662 7.05581C14.9932 7.656 15 7.84725 15 9.375C15 10.9028 14.9932 11.094 14.9662 11.6942C14.9387 12.2927 14.8436 12.7016 14.7047 13.0594C14.5636 13.4348 14.3422 13.775 14.0561 14.0561C13.775 14.3422 13.4348 14.5636 13.0594 14.7047C12.7016 14.8436 12.2927 14.9387 11.6942 14.9662C11.094 14.9932 10.9028 15 9.375 15C7.84725 15 7.656 14.9932 7.05581 14.9662C6.45731 14.9387 6.04837 14.8436 5.69062 14.7047C5.31517 14.5636 4.97501 14.3422 4.69387 14.0561C4.40778 13.775 4.18645 13.4348 4.04531 13.0594C3.90638 12.7016 3.81131 12.2927 3.78375 11.6942C3.75619 11.094 3.75 10.9028 3.75 9.375C3.75 7.84725 3.75619 7.656 3.78375 7.05581C3.81131 6.45731 3.90638 6.04837 4.04531 5.69062C4.18643 5.31516 4.40776 4.975 4.69387 4.69387C4.97499 4.40775 5.31515 4.18641 5.69062 4.04531C6.04837 3.90638 6.45731 3.81131 7.05581 3.78375ZM11.6475 4.79625C11.0546 4.76925 10.8769 4.76363 9.375 4.76363C7.87256 4.76363 7.69537 4.76925 7.10194 4.79625C6.5535 4.821 6.25594 4.91269 6.05737 4.98975C5.79525 5.09212 5.60738 5.21362 5.4105 5.4105C5.21419 5.60738 5.09212 5.79525 4.98975 6.05737C4.91269 6.25594 4.82156 6.5535 4.79625 7.1025C4.76925 7.69537 4.76363 7.87313 4.76363 9.375C4.76363 10.8774 4.76925 11.0546 4.79625 11.6481C4.821 12.1965 4.91269 12.4941 4.98975 12.6926C5.0799 12.937 5.22367 13.158 5.4105 13.3395C5.59197 13.5263 5.81302 13.6701 6.05737 13.7602C6.25594 13.8367 6.5535 13.9284 7.1025 13.9537C7.69481 13.9808 7.87313 13.9864 9.375 13.9864C10.8774 13.9864 11.0552 13.9808 11.6481 13.9537C12.1965 13.929 12.4941 13.8367 12.6926 13.7602C12.9548 13.6579 13.1426 13.5364 13.3395 13.3395C13.5263 13.158 13.6701 12.937 13.7602 12.6926C13.8367 12.4941 13.9284 12.1965 13.9537 11.6475C13.9808 11.0546 13.9864 10.8769 13.9864 9.375C13.9864 7.87256 13.9808 7.69537 13.9537 7.10194C13.929 6.5535 13.8367 6.25594 13.7602 6.05737C13.6579 5.79525 13.5364 5.60738 13.3395 5.4105C13.1426 5.21419 12.9548 5.09212 12.6926 4.98975C12.4941 4.91269 12.1965 4.82156 11.6475 4.79625ZM8.04931 10.7007C8.4009 11.0523 8.87777 11.2498 9.375 11.2498C9.87223 11.2498 10.3491 11.0523 10.7007 10.7007C11.0523 10.3491 11.2498 9.87223 11.2498 9.375C11.2498 8.87777 11.0523 8.4009 10.7007 8.04931C10.3491 7.69771 9.87223 7.50019 9.375 7.50019C8.87777 7.50019 8.4009 7.69771 8.04931 8.04931C7.69771 8.4009 7.50019 8.87777 7.50019 9.375C7.50019 9.87223 7.69771 10.3491 8.04931 10.7007ZM8.26964 6.70643C8.62008 6.56127 8.99569 6.48656 9.375 6.48656C10.1411 6.48656 10.8757 6.79088 11.4174 7.33257C11.9591 7.87425 12.2634 8.60894 12.2634 9.375C12.2634 10.1411 11.9591 10.8757 11.4174 11.4174C10.8757 11.9591 10.1411 12.2634 9.375 12.2634C8.99569 12.2634 8.62008 12.1887 8.26964 12.0436C7.9192 11.8984 7.60078 11.6856 7.33257 11.4174C7.06435 11.1492 6.85159 10.8308 6.70643 10.4804C6.56127 10.1299 6.48656 9.75432 6.48656 9.375C6.48656 8.99569 6.56127 8.62008 6.70643 8.26964C6.85159 7.9192 7.06435 7.60078 7.33257 7.33257C7.60078 7.06435 7.9192 6.85159 8.26964 6.70643ZM13.0012 6.63069C13.0352 6.54879 13.0526 6.46102 13.0526 6.37238C13.0526 6.19335 12.9815 6.02167 12.8549 5.89508C12.7283 5.76849 12.5566 5.69737 12.3776 5.69737C12.1986 5.69737 12.0269 5.76849 11.9003 5.89508C11.7737 6.02167 11.7026 6.19335 11.7026 6.37238C11.7026 6.46102 11.7201 6.54879 11.754 6.63069C11.7879 6.71258 11.8376 6.78699 11.9003 6.84967C11.963 6.91235 12.0374 6.96207 12.1193 6.99599C12.2012 7.02992 12.289 7.04738 12.3776 7.04738C12.4663 7.04738 12.554 7.02992 12.6359 6.99599C12.7178 6.96207 12.7922 6.91235 12.8549 6.84967C12.9176 6.78699 12.9673 6.71258 13.0012 6.63069Z" fill="#DADADA"/>
</svg>
